{
    "routes": [
        {
            "path": "home",
            "component": "homeComponent",
            "canActivate": "NeutrinosAuthGuardService"
        },
        {
            "path": "workspace",
            "component": "workspaceComponent",
            "canActivate": "NeutrinosAuthGuardService"
        },
        {
            "component": "createComponent",
            "path": "create"
        },
        {
            "component": "branchdetailsComponent",
            "path": "branchDetails"
        },
        {
            "path": "''",
            "redirectTo": "home",
            "pathMatch": "full",
            "default": true
        },
        {
            "path": "**",
            "component": "PageNotFoundComponent"
        }
    ]
}
