{
    "appPageId": "a49138ad-baed-da91-e6d2-6110c428c7c7",
    "appPageName": "workspace",
    "componentName": "workspaceComponent",
    "selectorName": "bh-workspace",
    "htmlFileName": "workspace.template.html",
    "tsFileName": "workspace.component.ts",
    "bkd": {
        "designerHtml": "",
        "designerReference": {},
        "ts": ""
    }
}
