{
    "appPageId": "d503b821-7dd9-260e-7336-4b8d032b8055",
    "appPageName": "home",
    "componentName": "homeComponent",
    "selectorName": "bh-home",
    "htmlFileName": "home.template.html",
    "tsFileName": "home.component.ts",
    "bkd": {
        "designerHtml": "",
        "designerReference": {},
        "ts": ""
    }
}
